{"totalPages":2,"currentPage":1,"totalRecords":190,"students":[{"entityId":1,"fullName":"Σταυρίνα Δήμα","registrationDate":1591278318000,"numGroups":3,"payments":70.00,"debt":425.00,"lastPayed":1595894400000},{"entityId":2,"fullName":"Διονύσης Ανδριόπουλος","registrationDate":1591278318000,"numGroups":2,"payments":20.00,"debt":257.00,"lastPayed":1595894400000},{"entityId":183,"fullName":"Χρύσα Πατάκης","registrationDate":1591278318000,"numGroups":1,"payments":0.00,"debt":217.50,"lastPayed":null},{"entityId":184,"fullName":"Θεμης Δραγούμης","registrationDate":1591278318000,"numGroups":1,"payments":0.00,"debt":217.50,"lastPayed":null},{"entityId":178,"fullName":"Ιωάννα Αποστολίδης","registrationDate":1591278318000,"numGroups":1,"payments":0.00,"debt":217.50,"lastPayed":null},{"entityId":185,"fullName":"Άννα Παπανδρέου","registrationDate":1591278318000,"numGroups":1,"payments":0.00,"debt":217.50,"lastPayed":null},{"entityId":179,"fullName":"Ελένη Θεοδωρίδης","registrationDate":1591278318000,"numGroups":1,"payments":0.00,"debt":217.50,"lastPayed":null},{"entityId":186,"fullName":"Κατερίνα Δήμας","registrationDate":1591278318000,"numGroups":1,"payments":0.00,"debt":217.50,"lastPayed":null},{"entityId":180,"fullName":"Παυλος Κυριακίδης","registrationDate":1591278318000,"numGroups":1,"payments":0.00,"debt":217.50,"lastPayed":null},{"entityId":187,"fullName":"Δημήτρης Λάζαρης","registrationDate":1591278318000,"numGroups":1,"payments":0.00,"debt":217.50,"lastPayed":null},{"entityId":181,"fullName":"Φάνης Λιγνάδης","registrationDate":1591278318000,"numGroups":1,"payments":0.00,"debt":217.50,"lastPayed":null},{"entityId":188,"fullName":"Βούλα Καλλιγάς","registrationDate":1591278318000,"numGroups":1,"payments":0.00,"debt":217.50,"lastPayed":null},{"entityId":182,"fullName":"Σοφία Ελευθερίου","registrationDate":1591278318000,"numGroups":1,"payments":0.00,"debt":217.50,"lastPayed":null},{"entityId":9,"fullName":"Βαγγέλης Κοντολέων","registrationDate":1591278318000,"numGroups":1,"payments":0.00,"debt":135.00,"lastPayed":null},{"entityId":3,"fullName":"Αναστασία Μιχαλακόπουλου","registrationDate":1591278318000,"numGroups":2,"payments":0.00,"debt":135.00,"lastPayed":null},{"entityId":4,"fullName":"Ορέστης Παγώνας","registrationDate":1591278318000,"numGroups":2,"payments":0.00,"debt":135.00,"lastPayed":null},{"entityId":5,"fullName":"Λίτσα Παγώνα","registrationDate":1591278318000,"numGroups":2,"payments":0.00,"debt":135.00,"lastPayed":null},{"entityId":6,"fullName":"Ιωσηφ Δέλτας","registrationDate":1591278318000,"numGroups":2,"payments":0.00,"debt":135.00,"lastPayed":null},{"entityId":7,"fullName":"Ξερξης Χατζόπουλος","registrationDate":1591278318000,"numGroups":1,"payments":0.00,"debt":135.00,"lastPayed":null},{"entityId":8,"fullName":"Τάσος Κορομηλάς","registrationDate":1591278318000,"numGroups":1,"payments":0.00,"debt":135.00,"lastPayed":null},{"entityId":14,"fullName":"Γεράσιμος Καζάκης","registrationDate":1591278318000,"numGroups":2,"payments":0.00,"debt":78.00,"lastPayed":1595894400000},{"entityId":15,"fullName":"Μαριάννα Δασκαλάκης","registrationDate":1591278318000,"numGroups":2,"payments":0.00,"debt":78.00,"lastPayed":1595894400000},{"entityId":13,"fullName":"Ντίνα Καπουτζίδης","registrationDate":1591278318000,"numGroups":2,"payments":0.00,"debt":37.50,"lastPayed":null},{"entityId":24,"fullName":"August Vokakios","registrationDate":1595484577000,"numGroups":1,"payments":0.00,"debt":22.50,"lastPayed":1595894400000},{"entityId":20,"fullName":"Henrik Vokakios","registrationDate":null,"numGroups":1,"payments":0.00,"debt":22.50,"lastPayed":1595894400000},{"entityId":23,"fullName":"Henrik Vokakios","registrationDate":1595484551000,"numGroups":1,"payments":0.00,"debt":22.50,"lastPayed":1595894400000},{"entityId":12,"fullName":"Φάνης Βεάκης","registrationDate":1591278318000,"numGroups":1,"payments":0.00,"debt":18.00,"lastPayed":null},{"entityId":11,"fullName":"Hans Σουρουπίδης","registrationDate":1591278318000,"numGroups":1,"payments":0.00,"debt":18.00,"lastPayed":null},{"entityId":40,"fullName":"Θεοδωρος Μιχαλακόπουλος","registrationDate":1591278318000,"numGroups":0,"payments":0.00,"debt":0.00,"lastPayed":null},{"entityId":72,"fullName":"Francois Δραγούμης","registrationDate":1591278318000,"numGroups":0,"payments":0.00,"debt":0.00,"lastPayed":null},{"entityId":104,"fullName":"Βαγγέλης Λιγνάδης","registrationDate":1591278318000,"numGroups":0,"payments":0.00,"debt":0.00,"lastPayed":null},{"entityId":136,"fullName":"Helene Βασιλαντωνόπουλος","registrationDate":1591278318000,"numGroups":0,"payments":0.00,"debt":0.00,"lastPayed":null},{"entityId":195,"fullName":"Σταμάτης Ελευθερίου","registrationDate":1591278318000,"numGroups":0,"payments":0.00,"debt":0.00,"lastPayed":null},{"entityId":53,"fullName":"Μαριάννα Χατζόπουλος","registrationDate":1591278318000,"numGroups":0,"payments":0.00,"debt":0.00,"lastPayed":null},{"entityId":85,"fullName":"Βούλα Καππάτος","registrationDate":1591278318000,"numGroups":0,"payments":0.00,"debt":0.00,"lastPayed":null},{"entityId":117,"fullName":"Νεστωρ Κούρτης","registrationDate":1591278318000,"numGroups":0,"payments":0.00,"debt":0.00,"lastPayed":null},{"entityId":149,"fullName":"Άννα Σωτηρόπουλος","registrationDate":1591278318000,"numGroups":0,"payments":0.00,"debt":0.00,"lastPayed":null},{"entityId":176,"fullName":"Αντώνης Τζες","registrationDate":1591278318000,"numGroups":0,"payments":0.00,"debt":0.00,"lastPayed":null},{"entityId":98,"fullName":"Βούλα Γεωργουσόπουλος","registrationDate":1591278318000,"numGroups":0,"payments":0.00,"debt":0.00,"lastPayed":null},{"entityId":130,"fullName":"Jorg Καζάκης","registrationDate":1591278318000,"numGroups":0,"payments":0.00,"debt":0.00,"lastPayed":null},{"entityId":162,"fullName":"Ηρακλής Πυργιωτη","registrationDate":1591278318000,"numGroups":0,"payments":0.00,"debt":0.00,"lastPayed":null},{"entityId":189,"fullName":"Francois Καλλιγάς","registrationDate":1591278318000,"numGroups":0,"payments":0.00,"debt":0.00,"lastPayed":null},{"entityId":66,"fullName":"Ορέστης Ευταξίας","registrationDate":1591278318000,"numGroups":0,"payments":0.00,"debt":0.00,"lastPayed":null},{"entityId":47,"fullName":"Σοφία Αντωνακόπουλου","registrationDate":1591278318000,"numGroups":0,"payments":0.00,"debt":0.00,"lastPayed":null},{"entityId":79,"fullName":"Marlene Γεωργουσόπουλος","registrationDate":1591278318000,"numGroups":0,"payments":0.00,"debt":0.00,"lastPayed":null},{"entityId":111,"fullName":"Πάρις Παπανδρέου","registrationDate":1591278318000,"numGroups":0,"payments":0.00,"debt":0.00,"lastPayed":null},{"entityId":143,"fullName":"Αλεξανδρος Αποστολίδης","registrationDate":1591278318000,"numGroups":0,"payments":0.00,"debt":0.00,"lastPayed":null},{"entityId":170,"fullName":"Σταυρίνα Αγλαμίδης","registrationDate":1591278318000,"numGroups":0,"payments":0.00,"debt":0.00,"lastPayed":null},{"entityId":18,"fullName":"Henrik Vokakios","registrationDate":null,"numGroups":0,"payments":0.00,"debt":0.00,"lastPayed":null},{"entityId":60,"fullName":"Κοσμάς Melberg","registrationDate":1591278318000,"numGroups":0,"payments":0.00,"debt":0.00,"lastPayed":null},{"entityId":92,"fullName":"Hans Τζες","registrationDate":1591278318000,"numGroups":0,"payments":0.00,"debt":0.00,"lastPayed":null},{"entityId":124,"fullName":"Παυλος Καπουτζίδης","registrationDate":1591278318000,"numGroups":0,"payments":0.00,"debt":0.00,"lastPayed":null},{"entityId":156,"fullName":"Jorg Βεάκης","registrationDate":1591278318000,"numGroups":0,"payments":0.00,"debt":0.00,"lastPayed":null},{"entityId":41,"fullName":"Μιχάλης Καπουτζίδης","registrationDate":1591278318000,"numGroups":0,"payments":0.00,"debt":0.00,"lastPayed":null},{"entityId":73,"fullName":"Παυλίνα Παπαδημας","registrationDate":1591278318000,"numGroups":0,"payments":0.00,"debt":0.00,"lastPayed":null},{"entityId":105,"fullName":"Κασσιανή Κούσουλας","registrationDate":1591278318000,"numGroups":0,"payments":0.00,"debt":0.00,"lastPayed":null},{"entityId":137,"fullName":"Hans Πατάκης","registrationDate":1591278318000,"numGroups":0,"payments":0.00,"debt":0.00,"lastPayed":null},{"entityId":167,"fullName":"Ζήσης Στουραϊτης","registrationDate":1591278318000,"numGroups":0,"payments":0.00,"debt":0.00,"lastPayed":null},{"entityId":196,"fullName":"Ντίνα Πατάκης","registrationDate":1591278318000,"numGroups":0,"payments":0.00,"debt":0.00,"lastPayed":null},{"entityId":54,"fullName":"Διονύσης Χατζόπουλος","registrationDate":1591278318000,"numGroups":0,"payments":0.00,"debt":0.00,"lastPayed":null},{"entityId":86,"fullName":"Θεοδωρος Γκιόκα","registrationDate":1591278318000,"numGroups":0,"payments":0.00,"debt":0.00,"lastPayed":null},{"entityId":118,"fullName":"Γιώργος Παππάς","registrationDate":1591278318000,"numGroups":0,"payments":0.00,"debt":0.00,"lastPayed":null},{"entityId":150,"fullName":"Δημήτρης Αντωνακόπουλος","registrationDate":1591278318000,"numGroups":0,"payments":0.00,"debt":0.00,"lastPayed":null},{"entityId":177,"fullName":"Peter Αποστολίδης","registrationDate":1591278318000,"numGroups":0,"payments":0.00,"debt":0.00,"lastPayed":null},{"entityId":10,"fullName":"Ήρκος Πυργιωτης","registrationDate":1591278318000,"numGroups":0,"payments":0.00,"debt":0.00,"lastPayed":null},{"entityId":67,"fullName":"Βασίλης Χαλκιάς","registrationDate":1591278318000,"numGroups":0,"payments":0.00,"debt":0.00,"lastPayed":null},{"entityId":99,"fullName":"Μιχάλης Τριβιζάς","registrationDate":1591278318000,"numGroups":0,"payments":0.00,"debt":0.00,"lastPayed":null},{"entityId":131,"fullName":"Κοσμάς Θεοδωρίδης","registrationDate":1591278318000,"numGroups":0,"payments":0.00,"debt":0.00,"lastPayed":null},{"entityId":163,"fullName":"Αλέκα Λάζαρης","registrationDate":1591278318000,"numGroups":0,"payments":0.00,"debt":0.00,"lastPayed":null},{"entityId":190,"fullName":"Αγνή Λάζαρης","registrationDate":1591278318000,"numGroups":0,"payments":0.00,"debt":0.00,"lastPayed":null},{"entityId":48,"fullName":"Αγνή Σκαρμούτσος","registrationDate":1591278318000,"numGroups":0,"payments":0.00,"debt":0.00,"lastPayed":null},{"entityId":80,"fullName":"John Καπουτζίδης","registrationDate":1591278318000,"numGroups":0,"payments":0.00,"debt":0.00,"lastPayed":null},{"entityId":112,"fullName":"Μιχάλης Κατράκης","registrationDate":1591278318000,"numGroups":0,"payments":0.00,"debt":0.00,"lastPayed":null},{"entityId":144,"fullName":"Δημήτρης Χαλικιάς","registrationDate":1591278318000,"numGroups":0,"payments":0.00,"debt":0.00,"lastPayed":null},{"entityId":171,"fullName":"Φάνης Τζες","registrationDate":1591278318000,"numGroups":0,"payments":0.00,"debt":0.00,"lastPayed":null},{"entityId":19,"fullName":"Henrik Vokakios","registrationDate":null,"numGroups":0,"payments":0.00,"debt":0.00,"lastPayed":null},{"entityId":61,"fullName":"Ντίνα Μιχαλακόπουλος","registrationDate":1591278318000,"numGroups":0,"payments":0.00,"debt":0.00,"lastPayed":null},{"entityId":93,"fullName":"Ιωάννα Melberg","registrationDate":1591278318000,"numGroups":0,"payments":0.00,"debt":0.00,"lastPayed":null},{"entityId":125,"fullName":"Marlene Καλλιγάς","registrationDate":1591278318000,"numGroups":0,"payments":0.00,"debt":0.00,"lastPayed":null},{"entityId":157,"fullName":"Άγγελος Δήμας","registrationDate":1591278318000,"numGroups":0,"payments":0.00,"debt":0.00,"lastPayed":null},{"entityId":42,"fullName":"Νεστωρ Κατράκης","registrationDate":1591278318000,"numGroups":0,"payments":0.00,"debt":0.00,"lastPayed":null},{"entityId":74,"fullName":"Διονύσης Δραγούμης","registrationDate":1591278318000,"numGroups":0,"payments":0.00,"debt":0.00,"lastPayed":null},{"entityId":106,"fullName":"Άγγελος Σωτηρόπουλος","registrationDate":1591278318000,"numGroups":0,"payments":0.00,"debt":0.00,"lastPayed":null},{"entityId":138,"fullName":"Ιωσηφ Τζες","registrationDate":1591278318000,"numGroups":0,"payments":0.00,"debt":0.00,"lastPayed":null},{"entityId":197,"fullName":"Κοσμάς Λάζαρης","registrationDate":1591278318000,"numGroups":0,"payments":0.00,"debt":0.00,"lastPayed":null},{"entityId":55,"fullName":"Θεοδωρος Παγώνα","registrationDate":1591278318000,"numGroups":0,"payments":0.00,"debt":0.00,"lastPayed":null},{"entityId":87,"fullName":"Μαριάννα Γεωργόπουλος","registrationDate":1591278318000,"numGroups":0,"payments":0.00,"debt":0.00,"lastPayed":null},{"entityId":119,"fullName":"Σοφία Σωτηρόπουλος","registrationDate":1591278318000,"numGroups":0,"payments":0.00,"debt":0.00,"lastPayed":null},{"entityId":151,"fullName":"Σταύρος Δραγούμης","registrationDate":1591278318000,"numGroups":0,"payments":0.00,"debt":0.00,"lastPayed":null},{"entityId":36,"fullName":"Θεόφραστος Καπουτζίδης","registrationDate":1591278318000,"numGroups":0,"payments":0.00,"debt":0.00,"lastPayed":null},{"entityId":68,"fullName":"Χρύσα Βλαντής","registrationDate":1591278318000,"numGroups":0,"payments":0.00,"debt":0.00,"lastPayed":null},{"entityId":100,"fullName":"Βούλα Μήλιας","registrationDate":1591278318000,"numGroups":0,"payments":0.00,"debt":0.00,"lastPayed":null},{"entityId":132,"fullName":"Άννα Σαβάλλας","registrationDate":1591278318000,"numGroups":0,"payments":0.00,"debt":0.00,"lastPayed":null},{"entityId":164,"fullName":"Χρύσα Δήμας","registrationDate":1591278318000,"numGroups":0,"payments":0.00,"debt":0.00,"lastPayed":null},{"entityId":191,"fullName":"Νικολέττα Στουραϊτης","registrationDate":1591278318000,"numGroups":0,"payments":0.00,"debt":0.00,"lastPayed":null},{"entityId":49,"fullName":"Derek ΜιχαλόπουλοςΑνδριανόπουλος","registrationDate":1591278318000,"numGroups":0,"payments":0.00,"debt":0.00,"lastPayed":null},{"entityId":81,"fullName":"Γιώργος Γεωργουσόπουλος","registrationDate":1591278318000,"numGroups":0,"payments":0.00,"debt":0.00,"lastPayed":null},{"entityId":113,"fullName":"Θεόφραστος Αγλαμίδης","registrationDate":1591278318000,"numGroups":0,"payments":0.00,"debt":0.00,"lastPayed":null},{"entityId":145,"fullName":"Φάνης Βεάκης","registrationDate":1591278318000,"numGroups":0,"payments":0.00,"debt":0.00,"lastPayed":null},{"entityId":172,"fullName":"Jorg Γεωργουσόπουλος","registrationDate":1591278318000,"numGroups":0,"payments":0.00,"debt":0.00,"lastPayed":null}]}